<svg xmlns="http://www.w3.org/2000/svg" viewBox="0 0 15.356 29.152">
	<path  d="M7620.659,7458.561h0v4.94h3.886v15.052h6.278V7463.5h5.192v-4.94h-5.192v-2.366c0-.844.508-1.52.974-1.52h4.218V7449.4h-5.057a6.394,6.394,0,0,0-6.413,6.208v2.952Z" transform="translate(-7620.659 -7449.4)" />
</svg>
